[gd_scene load_steps=3 format=2]

[ext_resource path="res://Scenes/World.tscn" type="PackedScene" id=1]

[sub_resource type="ViewportTexture" id=1]
viewport_path = NodePath("Node2D/Viewport")

[node name="Control" type="VBoxContainer"]
anchor_right = 1.0
anchor_bottom = 1.0
__meta__ = {
"_edit_use_anchors_": false
}

[node name="Display" type="TextureRect" parent="."]
margin_right = 1200.0
texture = SubResource( 1 )
expand = true

[node name="Node2D" parent="." instance=ExtResource( 1 )]

[editable path="Node2D"]
